{
    "type": "application",
    "source-directories": [
        "src"
    ],
    "elm-version": "0.19.0",
    "dependencies": {
        "direct": {
            "elm/browser": "1.0.1",
            "elm/core": "1.0.2",
            "elm/html": "1.0.0",
            "elm/http": "2.0.0",
            "elm/json": "1.1.2",
            "elm/random": "1.0.0",
            "elm/svg": "1.0.1",
            "elm/url": "1.0.0",
            "elm-community/random-extra": "3.0.0",
            "inkuzmin/elm-multiselect": "3.0.2",
            "rundis/elm-bootstrap": "5.0.0"
        },
        "indirect": {
            "Skinney/murmur3": "2.0.8",
            "avh4/elm-color": "1.0.0",
            "debois/elm-dom": "1.3.0",
            "elm/bytes": "1.0.7",
            "elm/file": "1.0.1",
            "elm/time": "1.0.0",
            "elm/virtual-dom": "1.0.2",
            "rtfeldman/elm-css": "16.0.0",
            "rtfeldman/elm-hex": "1.0.0"
        }
    },
    "test-dependencies": {
        "direct": {},
        "indirect": {}
    }
}